^E:\FACU\1ERA 2DOC\DESARROLLO DE VIDEOJUEGOS 1\ENDLESS\OBJ\WIN32\DEBUG\AUDIO.OBJ|E:\FACU\1ERA 2DOC\DESARROLLO DE VIDEOJUEGOS 1\ENDLESS\OBJ\WIN32\DEBUG\BACKGROUND.OBJ|E:\FACU\1ERA 2DOC\DESARROLLO DE VIDEOJUEGOS 1\ENDLESS\OBJ\WIN32\DEBUG\CONFIGURATIONS.OBJ|E:\FACU\1ERA 2DOC\DESARROLLO DE VIDEOJUEGOS 1\ENDLESS\OBJ\WIN32\DEBUG\CREDITS.OBJ|E:\FACU\1ERA 2DOC\DESARROLLO DE VIDEOJUEGOS 1\ENDLESS\OBJ\WIN32\DEBUG\EVENTS.OBJ|E:\FACU\1ERA 2DOC\DESARROLLO DE VIDEOJUEGOS 1\ENDLESS\OBJ\WIN32\DEBUG\GAME.OBJ|E:\FACU\1ERA 2DOC\DESARROLLO DE VIDEOJUEGOS 1\ENDLESS\OBJ\WIN32\DEBUG\GAMEPLAY.OBJ|E:\FACU\1ERA 2DOC\DESARROLLO DE VIDEOJUEGOS 1\ENDLESS\OBJ\WIN32\DEBUG\GLOBAL_DRAWING_VARS.OBJ|E:\FACU\1ERA 2DOC\DESARROLLO DE VIDEOJUEGOS 1\ENDLESS\OBJ\WIN32\DEBUG\GLOBAL_VARS.OBJ|E:\FACU\1ERA 2DOC\DESARROLLO DE VIDEOJUEGOS 1\ENDLESS\OBJ\WIN32\DEBUG\MAIN.OBJ|E:\FACU\1ERA 2DOC\DESARROLLO DE VIDEOJUEGOS 1\ENDLESS\OBJ\WIN32\DEBUG\MENU.OBJ|E:\FACU\1ERA 2DOC\DESARROLLO DE VIDEOJUEGOS 1\ENDLESS\OBJ\WIN32\DEBUG\OBJECTS.OBJ|E:\FACU\1ERA 2DOC\DESARROLLO DE VIDEOJUEGOS 1\ENDLESS\OBJ\WIN32\DEBUG\RULES.OBJ|E:\FACU\1ERA 2DOC\DESARROLLO DE VIDEOJUEGOS 1\ENDLESS\OBJ\WIN32\DEBUG\TEXTURES.OBJ
E:\FACU\1ERA 2DOC\DESARROLLO DE VIDEOJUEGOS 1\ENDLESS\BIN\DEBUG\WIN32\ENDLESS.ILK
E:\FACU\1ERA 2DOC\DESARROLLO DE VIDEOJUEGOS 1\ENDLESS\BIN\DEBUG\WIN32\ENDLESS.EXE
E:\FACU\1ERA 2DOC\DESARROLLO DE VIDEOJUEGOS 1\ENDLESS\BIN\DEBUG\WIN32\ENDLESS.PDB
